<svg width="80" height="80" viewBox="0 0 80 80" fill="none" xmlns="http://www.w3.org/2000/svg">
<g filter="url(#filter0_d)">
<path fill-rule="evenodd" clip-rule="evenodd" d="M40 75C59.8823 75 76 58.8823 76 39C76 19.1177 59.8823 3 40 3C20.1177 3 4 19.1177 4 39C4 58.8823 20.1177 75 40 75Z" fill="url(#paint0_radial)"/>
</g>
<g filter="url(#filter1_i)">
<path fill-rule="evenodd" clip-rule="evenodd" d="M40 64C53.8071 64 65 52.8071 65 39C65 25.1929 53.8071 14 40 14C26.1929 14 15 25.1929 15 39C15 52.8071 26.1929 64 40 64Z" fill="#4A5594"/>
</g>
<path fill-rule="evenodd" clip-rule="evenodd" d="M43.2474 48.3023V48.2994H43.2484L43.2474 48.3023ZM43.2474 48.2994H40.7916V45.9085L40.7684 45.9086C40.7158 45.9089 40.6651 45.9104 40.6101 45.9104H39.2113V48.2994H36.7516V45.9104H33V43.9014H33.5729C33.9539 43.9014 34.2127 43.867 34.3482 43.8021C34.4838 43.7381 34.5784 43.6426 34.6347 43.5213C34.6901 43.401 34.7178 43.127 34.7178 42.705V34.605C34.7178 34.1753 34.6901 33.9012 34.6347 33.7828C34.5793 33.6654 34.4838 33.5718 34.3482 33.5021C34.2127 33.4324 33.9539 33.398 33.5729 33.398H33V31.3881H36.7516V29H39.2113V31.3881H40.7925V29H43.2503V31.5619C43.6131 31.6325 43.9464 31.7175 44.2252 31.8321C44.9461 32.1271 45.5009 32.5501 45.8895 33.102C46.2772 33.6539 46.4701 34.2603 46.4701 34.9191C46.4701 35.3984 46.3698 35.853 46.1645 36.2836C45.9573 36.7133 45.6603 37.0933 45.2746 37.4227C44.8879 37.7531 44.378 38.0233 43.744 38.2401C44.4238 38.4139 44.9442 38.6048 45.3042 38.813C45.8246 39.1042 46.239 39.5129 46.5426 40.0371C46.8472 40.5613 47 41.1447 47 41.7912C47 42.5598 46.768 43.2693 46.3039 43.9195C45.8408 44.5679 45.1839 45.0634 44.335 45.4024C44.0237 45.5265 43.6628 45.6268 43.2474 45.706V48.2994ZM38.3099 33.7341H39.9007C40.8326 33.7341 41.4762 33.7914 41.8371 33.906C42.1981 34.0206 42.474 34.2135 42.665 34.4837C42.856 34.7549 42.9514 35.0805 42.9514 35.4624C42.9514 35.83 42.8512 36.1547 42.6497 36.4364C42.4482 36.718 42.1503 36.9281 41.7512 37.0656C41.353 37.205 40.7362 37.2747 39.9016 37.2747H38.3099V33.7341ZM39.1798 43.5929H40.2397C40.8565 43.5929 41.3673 43.5347 41.7703 43.4211C42.1761 43.3065 42.5198 43.0687 42.8034 42.7078C43.088 42.3468 43.2293 41.9133 43.2293 41.4063C43.2293 40.9747 43.129 40.61 42.9276 40.3121C42.727 40.0132 42.4272 39.7878 42.0262 39.6351C41.6242 39.4842 41.0112 39.4069 40.1871 39.4069H38.307V42.5512C38.3137 42.9933 38.3309 43.2549 38.3586 43.3313C38.393 43.4296 38.4503 43.4965 38.5295 43.5337C38.6097 43.5729 38.8265 43.5929 39.1798 43.5929Z" fill="white"/>
<defs>
<filter id="filter0_d" x="0" y="0" width="80" height="80" filterUnits="userSpaceOnUse" color-interpolation-filters="sRGB">
<feFlood flood-opacity="0" result="BackgroundImageFix"/>
<feColorMatrix in="SourceAlpha" type="matrix" values="0 0 0 0 0 0 0 0 0 0 0 0 0 0 0 0 0 0 127 0"/>
<feOffset dy="1"/>
<feGaussianBlur stdDeviation="2"/>
<feColorMatrix type="matrix" values="0 0 0 0 0 0 0 0 0 0 0 0 0 0 0 0 0 0 0.173234 0"/>
<feBlend mode="normal" in2="BackgroundImageFix" result="effect1_dropShadow"/>
<feBlend mode="normal" in="SourceGraphic" in2="effect1_dropShadow" result="shape"/>
</filter>
<filter id="filter1_i" x="15" y="14" width="50" height="50" filterUnits="userSpaceOnUse" color-interpolation-filters="sRGB">
<feFlood flood-opacity="0" result="BackgroundImageFix"/>
<feBlend mode="normal" in="SourceGraphic" in2="BackgroundImageFix" result="shape"/>
<feColorMatrix in="SourceAlpha" type="matrix" values="0 0 0 0 0 0 0 0 0 0 0 0 0 0 0 0 0 0 127 0" result="hardAlpha"/>
<feOffset/>
<feGaussianBlur stdDeviation="8"/>
<feComposite in2="hardAlpha" operator="arithmetic" k2="-1" k3="1"/>
<feColorMatrix type="matrix" values="0 0 0 0 0 0 0 0 0 0 0 0 0 0 0 0 0 0 0.5 0"/>
<feBlend mode="normal" in2="shape" result="effect1_innerShadow"/>
</filter>
<radialGradient id="paint0_radial" cx="0" cy="0" r="1" gradientUnits="userSpaceOnUse" gradientTransform="translate(40 4.82081) rotate(90) scale(69.4801)">
<stop stop-color="#C9FFFF"/>
<stop offset="1" stop-color="#3FD5D5"/>
</radialGradient>
</defs>
</svg>
